-------------------------------------------------------------------------------
Test set: pt.ipp.isep.dei.project1.model.geographicarea.OccupationAreaTest
-------------------------------------------------------------------------------
Tests run: 25, Failures: 0, Errors: 0, Skipped: 0, Time elapsed: 0.001 s - in pt.ipp.isep.dei.project1.model.geographicarea.OccupationAreaTest
