-------------------------------------------------------------------------------
Test set: pt.ipp.isep.dei.project1.model.device.tv.TvSpecTest
-------------------------------------------------------------------------------
Tests run: 6, Failures: 0, Errors: 0, Skipped: 0, Time elapsed: 0 s - in pt.ipp.isep.dei.project1.model.device.tv.TvSpecTest
