-------------------------------------------------------------------------------
Test set: pt.ipp.isep.dei.project1.model.device.microwaveoven.MicrowaveOvenSpecTest
-------------------------------------------------------------------------------
Tests run: 7, Failures: 0, Errors: 0, Skipped: 0, Time elapsed: 0 s - in pt.ipp.isep.dei.project1.model.device.microwaveoven.MicrowaveOvenSpecTest
