-------------------------------------------------------------------------------
Test set: pt.ipp.isep.dei.project1.controllersweb.room.CreateNewSensorAndAttachToRoomRestControllerTest
-------------------------------------------------------------------------------
Tests run: 6, Failures: 0, Errors: 0, Skipped: 0, Time elapsed: 0.024 s - in pt.ipp.isep.dei.project1.controllersweb.room.CreateNewSensorAndAttachToRoomRestControllerTest
