-------------------------------------------------------------------------------
Test set: pt.ipp.isep.dei.project1.model.repositories.RoomDomainServiceTest
-------------------------------------------------------------------------------
Tests run: 42, Failures: 0, Errors: 0, Skipped: 0, Time elapsed: 0.001 s - in pt.ipp.isep.dei.project1.model.repositories.RoomDomainServiceTest
