-------------------------------------------------------------------------------
Test set: pt.ipp.isep.dei.project1.model.repositories.GeographicAreaTypeRepoTest
-------------------------------------------------------------------------------
Tests run: 2, Failures: 0, Errors: 0, Skipped: 0, Time elapsed: 0 s - in pt.ipp.isep.dei.project1.model.repositories.GeographicAreaTypeRepoTest
