-------------------------------------------------------------------------------
Test set: pt.ipp.isep.dei.project1.model.device.lamp.LampTest
-------------------------------------------------------------------------------
Tests run: 13, Failures: 0, Errors: 0, Skipped: 0, Time elapsed: 0 s - in pt.ipp.isep.dei.project1.model.device.lamp.LampTest
